<?xml version="1.0" encoding="utf-8"?>
<!-- Generator: Adobe Illustrator 25.0.0, SVG Export Plug-In . SVG Version: 6.00 Build 0)  -->
<svg version="1.1" id="レイヤー_1" xmlns="http://www.w3.org/2000/svg" xmlns:xlink="http://www.w3.org/1999/xlink" x="0px"
	 y="0px" viewBox="0 0 206.4 202.1" style="enable-background:new 0 0 206.4 202.1;" xml:space="preserve">
<style type="text/css">
	.st0{fill:#DAE8B7;}
</style>
<path class="st0" d="M186.8,175.3c-18.6,0-39.7,0-47.2,0c-7.4,0-11.1-1-15.6-8.2c-4.8-7.6-11.3-13.9-19.1-14.8l0,49.5h-3.5v-49.5
	c-7.8,0.8-14.2,7.2-19.1,14.8c-4.6,7.2-8.2,8.2-15.6,8.2c-7.4,0-28.6,0-47.2,0c-18.2,0-22-12.5-14.9-24.9
	c2.9-5.1,8.9-15.7,11.7-20.6c3.9-6.9,8.7-7.8,15.7-5.8c2.5,0.7,6,1.7,8.5,2.4c6.1,1.7,4.9,4.7,8.5,6.7c3.4,1.9,7.4,0.3,8.2-2.7
	c0.9-3-1.6-6.5-5.5-6.7c-4.1-0.2-4.8,3-10.9,1.2c-2.5-0.7-6-1.7-8.5-2.4c-7-2-8.1-6.9-4.2-13.8l14.5-25.6c4.3-7.6,9.5-8.6,16.3-4.7
	c2.7,1.5,7.2,4.1,9.9,5.6c6.5,3.7,4.4,6.6,8,9.9c3.3,3.1,8.3,2.4,10.2-0.8c1.8-3.2,0-7.9-4.4-9.2c-4.7-1.4-6.2,2-12.7-1.7
	c-2.7-1.5-7.2-4.1-9.9-5.6c-6.8-3.8-8.6-8.8-4.3-16.4c5-8.7,20.4-34.7,25.6-42.3C90.4,5,97.3,2.3,103.2,2.3
	c5.9,0,12.6,2.4,21.7,15.5c5.2,7.5,20.7,33.5,25.6,42.3c4.3,7.6,2.5,12.6-4.3,16.4c-2.7,1.5-7.2,4.1-9.9,5.6
	c-6.5,3.7-8,0.3-12.7,1.7c-4.4,1.3-6.3,6-4.4,9.2c1.8,3.2,6.8,3.9,10.2,0.8c3.6-3.3,1.5-6.2,8-9.9c2.7-1.5,7.2-4.1,9.9-5.6
	c6.8-3.8,12-2.8,16.3,4.7l14.5,25.6c3.9,6.9,2.8,11.8-4.2,13.8c-2.5,0.7-6,1.7-8.5,2.4c-6.1,1.7-6.7-1.5-10.9-1.2
	c-3.9,0.2-6.4,3.7-5.5,6.7c0.9,3,4.9,4.6,8.2,2.7c3.6-2,2.4-5,8.5-6.7c2.5-0.7,6-1.7,8.5-2.4c7-2,11.8-1.1,15.7,5.8
	c2.8,4.9,8.8,15.6,11.7,20.6C208.8,162.8,205,175.3,186.8,175.3z M178.7,155.2l-71.9-20.9l52.1-33.8c0.7-0.4,0.9-1.4,0.4-2.1
	c-0.4-0.7-1.4-0.9-2.1-0.4l-52.5,34l0-103c0-0.8-0.7-1.5-1.5-1.5c-0.8,0-1.5,0.7-1.5,1.5v103L49.2,98c-0.7-0.4-1.6-0.2-2.1,0.4
	c-0.4,0.7-0.3,1.6,0.4,2.1l52.1,33.8l-71.9,20.9c-0.8,0.2-1.2,1.1-1,1.8c0.2,0.7,0.8,1.1,1.4,1.1c0.1,0,0.3,0,0.4-0.1l74.6-21.7
	l74.6,21.7c0.1,0,0.3,0.1,0.4,0.1c0.6,0,1.2-0.4,1.4-1.1C179.9,156.2,179.5,155.4,178.7,155.2z"/>
</svg>
